Force;NameVM;vCenter;vCenterUser;vCenterPass;Cluster;ESX;Template;TemplateNIC;TemplateNbNIC;DefautLanNIC;TemplateUser;TemplatePwd;CPU;RAM;HDD1Datastore;HDD1SuppSize;HDD1SuppDatastore;HDD2Size;HDD2Datastore;HDD3Size;HDD3Datastore;VMIP;VMMask;VMGTW;DNSSEARCH;DNSNAME1;DNSNAME2;LAN1;IP1;Mask1;GTW1;LAN2;IP2;Mask2;GTW2;LAN3;IP3;Mask3;GTW3;Lan4;IP4;Mask4;GTW4;LAN5;IP5;Mask5;GTW5;LAN6;IP6;Mask6;GTW6
1;innapnoi1rad01;qviaso94.creteil.francetelecom.fr;adint\AdminINES;Pime_2018;CLNIA45;innapesxnoi003.creteil.francetelecom.fr;TPL-INES-G03R02C02;eth0;4;AD_SERVEURS_LAB;root;PLATON;2;4;HN420_Datastore_VMDK;;;;;;;10.104.120.94;255.255.255.192;10.104.120.126;;;;BACK_INTERNAL_LAB;;;;PFS1_LAB;;;;STOCKAGE_VM_LAB;;;;;;;;;;;;;;;
1;innapnoi1nev01;qviaso94.creteil.francetelecom.fr;adint\AdminINES;Pime_2018;CLNIA45;innapesxnoi003.creteil.francetelecom.fr;TPL-INES-G03R02C02;eth0;4;AD_SERVEURS_LAB;root;PLATON;2;4;HN420_Datastore_VMDK;;;;;;;10.104.120.95;255.255.255.192;10.104.120.126;;;;BACK_INTERNAL_LAB;;;;PFS1_LAB;;;;STOCKAGE_VM_LAB;;;;;;;;;;;;;;;
1;innapnoi1nev02;qviaso94.creteil.francetelecom.fr;adint\AdminINES;Pime_2018;CLNIA45;innapesxnoi003.creteil.francetelecom.fr;TPL-INES-G03R02C02;eth0;4;AD_SERVEURS_LAB;root;PLATON;2;4;HN420_Datastore_VMDK;;;;;;;10.104.120.96;255.255.255.192;10.104.120.126;;;;BACK_INTERNAL_LAB;;;;PFS1_LAB;;;;STOCKAGE_VM_LAB;;;;;;;;;;;;;;;
1;innapnoi1dep01;qviaso94.creteil.francetelecom.fr;adint\AdminINES;Pime_2018;CLNIA45;innapesxnoi003.creteil.francetelecom.fr;TPL-INES-G03R02C02;eth0;4;AD_SERVEURS_LAB;root;PLATON;4;8;HN420_Datastore_VMDK;20;HN420_Datastore_VMDK;;;;;10.104.120.99;255.255.255.192;10.104.120.126;;;;BACK_INTERNAL_LAB;;;;PFS1_LAB;;;;STOCKAGE_VM_LAB;;;;;;;;;;;;;;;
1;innapnoi1rob01;qviaso94.creteil.francetelecom.fr;adint\AdminINES;Pime_2018;CLNIA45;innapesxnoi003.creteil.francetelecom.fr;TPL-INES-ROB;eth0;6;AD_SERVEURS_LAB;root;PLATON;4;8;HN420_Datastore_VMDK;;;;;;;10.104.120.97;255.255.255.192;10.104.120.126;;;;BACK_INTERNAL_LAB;;;;FRONT_RADIUS_LAB;;;;PFS1_LAB;;;;PFS2_LAB;;;;STOCKAGE_VM_LAB;;;;;;;
1;innapnoi1rob02;qviaso94.creteil.francetelecom.fr;adint\AdminINES;Pime_2018;CLNIA45;innapesxnoi003.creteil.francetelecom.fr;TPL-INES-ROB;eth0;6;AD_SERVEURS_LAB;root;PLATON;4;8;HN420_Datastore_VMDK;;;;;;;10.104.120.98;255.255.255.192;10.104.120.126;;;;BACK_INTERNAL_LAB;;;;FRONT_RADIUS_LAB;;;;PFS1_LAB;;;;PFS2_LAB;;;;STOCKAGE_VM_LAB;;;;;;;
1;innapnoi3dep01;qviaso94.creteil.francetelecom.fr;adint\AdminINES;Pime_2018;CLNIA45;innapesxnoi003.creteil.francetelecom.fr;TPL-INES-G03R02C02;eth0;3;AD_SERVEURS_INT_A;root;PLATON;6;12;HN420_Datastore_VMDK;20;HN420_Datastore_VMDK;;;;;10.97.128.1;255.255.255.192;10.97.129.62;;;;BACK_INTERNAL_INT_A;;;;PFS1_INT_A;;;;;;;;;;;;;;;;;;;
1;innapnoi2rob01;qviaso94.creteil.francetelecom.fr;adint\AdminINES;Pime_2018;CLNIA45;innapesxnoi004.creteil.francetelecom.fr;TPL-INES-ROB-02;eth0;4;AD_SERVEURS_INT_2A2;root;PLATON;2;4;HN420_Datastore_VMDK_INT;;;;;;;10.97.129.1;255.255.255.192;10.97.129.62;;;;BACK_INTERNAL_INT_A;192.168.100.21;255.255.255.192;192.168.100.62;BACK_INTERNAL_INT_C;192.168.211.101;255.255.255.0;192.168.211.254;BACK_INTERNAL_INT_2A2;192.168.221.101;255.255.255.0;192.168.221.254;INT_LB_RBCI;192.168.231.101;255.255.255.0;192.168.231.254;BACK_INTERNAL_INT_B;192.168.241.101;255.255.255.0;192.168.241.254;BACK_INTERNAL_INT_D;192.168.251.101;255.255.255.0;192.168.251.254
1;innapnoi2rob02;qviaso94.creteil.francetelecom.fr;adint\AdminINES;Pime_2018;CLNIA45;innapesxnoi003.creteil.francetelecom.fr;TPL-ROBOT-7-Interfaces;eth0;7;AD_SERVEURS_INT_2A2;root;PLATON;4;8;HN420_Datastore_VMDK_INT;;;;;;;10.97.129.2;255.255.255.192;10.97.129.62;;;;BACK_INTERNAL_INT_A;192.168.100.22;255.255.255.192;192.168.100.62;BACK_INTERNAL_INT_C;192.168.211.102;255.255.255.0;192.168.211.254;BACK_INTERNAL_INT_2A2;192.168.221.102;255.255.255.0;192.168.221.254;INT_LB_RBCI;192.168.231.102;255.255.255.0;192.168.231.254;BACK_INTERNAL_INT_B;192.168.241.102;255.255.255.0;192.168.241.254;BACK_INTERNAL_INT_D;192.168.251.102;255.255.255.0;192.168.251.254
1;innapnoi2rob03;qviaso94.creteil.francetelecom.fr;adint\AdminINES;Pime_2018;CLNIA45;innapesxnoi003.creteil.francetelecom.fr;TPL-ROBOT-7-Interfaces;eth0;7;AD_SERVEURS_INT_2A2;root;PLATON;4;8;HN420_Datastore_VMDK_INT;;;;;;;10.97.129.3;255.255.255.192;10.97.129.62;;;;BACK_INTERNAL_INT_A;192.168.100.23;255.255.255.192;192.168.100.62;BACK_INTERNAL_INT_C;192.168.211.103;255.255.255.0;192.168.211.254;BACK_INTERNAL_INT_2A2;192.168.221.103;255.255.255.0;192.168.221.254;INT_LB_RBCI;192.168.231.103;255.255.255.0;192.168.231.254;BACK_INTERNAL_INT_B;192.168.241.103;255.255.255.0;192.168.241.254;BACK_INTERNAL_INT_D;192.168.251.103;255.255.255.0;192.168.251.254
1;innapnoi2rob04;qviaso94.creteil.francetelecom.fr;adint\AdminINES;Pime_2018;CLNIA45;innapesxnoi003.creteil.francetelecom.fr;TPL-ROBOT-7-Interfaces;eth0;7;AD_SERVEURS_INT_2A2;root;PLATON;4;8;HN420_Datastore_VMDK_INT;;;;;;;10.97.129.4;255.255.255.192;10.97.129.62;;;;BACK_INTERNAL_INT_A;192.168.100.24;255.255.255.192;192.168.100.62;BACK_INTERNAL_INT_C;192.168.211.104;255.255.255.0;192.168.211.254;BACK_INTERNAL_INT_2A2;192.168.221.104;255.255.255.0;192.168.221.254;INT_LB_RBCI;192.168.231.104;255.255.255.0;192.168.231.254;BACK_INTERNAL_INT_B;192.168.241.104;255.255.255.0;192.168.241.254;BACK_INTERNAL_INT_D;192.168.251.104;255.255.255.0;192.168.251.254
1;innapnoi2rob05;qviaso94.creteil.francetelecom.fr;adint\AdminINES;Pime_2018;CLNIA45;innapesxnoi003.creteil.francetelecom.fr;TPL-ROBOT-7-Interfaces;eth0;7;AD_SERVEURS_INT_2A2;root;PLATON;4;8;HN420_Datastore_VMDK_INT;;;;;;;10.97.129.5;255.255.255.192;10.97.129.62;;;;BACK_INTERNAL_INT_A;192.168.100.25;255.255.255.192;192.168.100.62;BACK_INTERNAL_INT_C;192.168.211.105;255.255.255.0;192.168.211.254;BACK_INTERNAL_INT_2A2;192.168.221.105;255.255.255.0;192.168.221.254;INT_LB_RBCI;192.168.231.105;255.255.255.0;192.168.231.254;BACK_INTERNAL_INT_B;192.168.241.105;255.255.255.0;192.168.241.254;BACK_INTERNAL_INT_D;192.168.251.105;255.255.255.0;192.168.251.254
1;innapnoi2rob06;qviaso94.creteil.francetelecom.fr;adint\AdminINES;Pime_2018;CLNIA45;innapesxnoi003.creteil.francetelecom.fr;TPL-ROBOT-7-Interfaces;eth0;7;AD_SERVEURS_INT_2A2;root;PLATON;2;4;HN420_Datastore_VMDK_INT;;;;;;;10.97.129.6;255.255.255.192;10.97.129.62;;;;BACK_INTERNAL_INT_A;192.168.100.26;255.255.255.192;192.168.100.62;BACK_INTERNAL_INT_C;192.168.211.106;255.255.255.0;192.168.211.254;BACK_INTERNAL_INT_2A2;192.168.221.106;255.255.255.0;192.168.221.254;INT_LB_RBCI;192.168.231.106;255.255.255.0;192.168.231.254;BACK_INTERNAL_INT_B;192.168.241.106;255.255.255.0;192.168.241.254;BACK_INTERNAL_INT_D;192.168.251.106;255.255.255.0;192.168.251.254
1;innapnoi2rob07;qviaso94.creteil.francetelecom.fr;adint\AdminINES;Pime_2018;CLNIA45;innapesxnoi003.creteil.francetelecom.fr;TPL-ROBOT-7-Interfaces;eth0;7;AD_SERVEURS_INT_2A2;root;PLATON;2;4;HN420_Datastore_VMDK_INT;;;;;;;10.97.129.7;255.255.255.192;10.97.129.62;;;;BACK_INTERNAL_INT_A;192.168.100.27;255.255.255.192;192.168.100.62;BACK_INTERNAL_INT_C;192.168.211.107;255.255.255.0;192.168.211.254;BACK_INTERNAL_INT_2A2;192.168.221.107;255.255.255.0;192.168.221.254;INT_LB_RBCI;192.168.231.107;255.255.255.0;192.168.231.254;BACK_INTERNAL_INT_B;192.168.241.107;255.255.255.0;192.168.241.254;BACK_INTERNAL_INT_D;192.168.251.107;255.255.255.0;192.168.251.254
1;innapnoi2rob08;qviaso94.creteil.francetelecom.fr;adint\AdminINES;Pime_2018;CLNIA45;innapesxnoi003.creteil.francetelecom.fr;TPL-ROBOT-7-Interfaces;eth0;7;AD_SERVEURS_INT_2A2;root;PLATON;2;4;HN420_Datastore_VMDK_INT;;;;;;;10.97.129.8;255.255.255.192;10.97.129.62;;;;BACK_INTERNAL_INT_A;192.168.100.28;255.255.255.192;192.168.100.62;BACK_INTERNAL_INT_C;192.168.211.108;255.255.255.0;192.168.211.254;BACK_INTERNAL_INT_2A2;192.168.221.108;255.255.255.0;192.168.221.254;INT_LB_RBCI;192.168.231.108;255.255.255.0;192.168.231.254;BACK_INTERNAL_INT_B;192.168.241.108;255.255.255.0;192.168.241.254;BACK_INTERNAL_INT_D;192.168.251.108;255.255.255.0;192.168.251.254
1;innapnoi2rob09;qviaso94.creteil.francetelecom.fr;adint\AdminINES;Pime_2018;CLNIA45;innapesxnoi003.creteil.francetelecom.fr;TPL-ROBOT-7-Interfaces;eth0;7;AD_SERVEURS_INT_2A2;root;PLATON;2;4;HN420_Datastore_VMDK_INT;;;;;;;10.97.129.9;255.255.255.192;10.97.129.62;;;;BACK_INTERNAL_INT_A;192.168.100.29;255.255.255.192;192.168.100.62;BACK_INTERNAL_INT_C;192.168.211.109;255.255.255.0;192.168.211.254;BACK_INTERNAL_INT_2A2;192.168.221.109;255.255.255.0;192.168.221.254;INT_LB_RBCI;192.168.231.109;255.255.255.0;192.168.231.254;BACK_INTERNAL_INT_B;192.168.241.109;255.255.255.0;192.168.241.254;BACK_INTERNAL_INT_D;192.168.251.109;255.255.255.0;192.168.251.254
1;innapnoi2rob10;qviaso94.creteil.francetelecom.fr;adint\AdminINES;Pime_2018;CLNIA45;innapesxnoi003.creteil.francetelecom.fr;TPL-ROBOT-7-Interfaces;eth0;7;AD_SERVEURS_INT_2A2;root;PLATON;4;8;HN420_Datastore_VMDK_INT;;;;;;;10.97.129.10;255.255.255.192;10.97.129.62;;;;BACK_INTERNAL_INT_A;192.168.100.30;255.255.255.192;192.168.100.62;BACK_INTERNAL_INT_C;192.168.211.110;255.255.255.0;192.168.211.254;BACK_INTERNAL_INT_2A2;192.168.221.110;255.255.255.0;192.168.221.254;INT_LB_RBCI;192.168.231.110;255.255.255.0;192.168.231.254;BACK_INTERNAL_INT_B;192.168.241.110;255.255.255.0;192.168.241.254;BACK_INTERNAL_INT_D;192.168.251.110;255.255.255.0;192.168.251.254
1;innapnoi2e2e01;qviaso94.creteil.francetelecom.fr;adint\AdminINES;Pime_2018;CLNIA45;innapesxnoi003.creteil.francetelecom.fr;TPL-ROBOT-7-Interfaces;eth0;7;AD_SERVEURS_INT_2A2;root;PLATON;2;4;HN420_Datastore_VMDK_INT;;;;;;;10.97.129.42;255.255.255.192;10.97.129.62;;;;BACK_INTERNAL_INT_A;192.168.100.33;255.255.255.192;192.168.100.62;BACK_INTERNAL_INT_C;192.168.211.142;255.255.255.0;192.168.211.254;BACK_INTERNAL_INT_2A2;192.168.221.142;255.255.255.0;192.168.221.254;INT_LB_RBCI;192.168.231.142;255.255.255.0;192.168.231.254;BACK_INTERNAL_INT_B;192.168.241.142;255.255.255.0;192.168.241.254;BACK_INTERNAL_INT_D;192.168.251.142;255.255.255.0;192.168.251.254
1;innapnoi2e2e02;qviaso94.creteil.francetelecom.fr;adint\AdminINES;Pime_2018;CLNIA45;innapesxnoi003.creteil.francetelecom.fr;TPL-ROBOT-7-Interfaces;eth0;7;AD_SERVEURS_INT_2A2;root;PLATON;2;4;HN420_Datastore_VMDK_INT;;;;;;;10.97.129.43;255.255.255.192;10.97.129.62;;;;BACK_INTERNAL_INT_A;192.168.100.34;255.255.255.192;192.168.100.62;BACK_INTERNAL_INT_C;192.168.211.143;255.255.255.0;192.168.211.254;BACK_INTERNAL_INT_2A2;192.168.221.143;255.255.255.0;192.168.221.254;INT_LB_RBCI;192.168.231.143;255.255.255.0;192.168.231.254;BACK_INTERNAL_INT_B;192.168.241.143;255.255.255.0;192.168.241.254;BACK_INTERNAL_INT_D;192.168.251.143;255.255.255.0;192.168.251.254
1;innapnoi2e2e03;qviaso94.creteil.francetelecom.fr;adint\AdminINES;Pime_2018;CLNIA45;innapesxnoi003.creteil.francetelecom.fr;TPL-ROBOT-7-Interfaces;eth0;7;AD_SERVEURS_INT_2A2;root;PLATON;2;4;HN420_Datastore_VMDK_INT;;;;;;;10.97.129.44;255.255.255.192;10.97.129.62;;;;BACK_INTERNAL_INT_A;192.168.100.35;255.255.255.192;192.168.100.62;BACK_INTERNAL_INT_C;192.168.211.144;255.255.255.0;192.168.211.254;BACK_INTERNAL_INT_2A2;192.168.221.144;255.255.255.0;192.168.221.254;INT_LB_RBCI;192.168.231.144;255.255.255.0;192.168.231.254;BACK_INTERNAL_INT_B;192.168.241.144;255.255.255.0;192.168.241.254;BACK_INTERNAL_INT_D;192.168.251.144;255.255.255.0;192.168.251.254
1;innapnoi2e2e04;qviaso94.creteil.francetelecom.fr;adint\AdminINES;Pime_2018;CLNIA45;innapesxnoi003.creteil.francetelecom.fr;TPL-ROBOT-7-Interfaces;eth0;7;AD_SERVEURS_INT_2A2;root;PLATON;2;4;HN420_Datastore_VMDK_INT;;;;;;;10.97.129.45;255.255.255.192;10.97.129.62;;;;BACK_INTERNAL_INT_A;192.168.100.36;255.255.255.192;192.168.100.62;BACK_INTERNAL_INT_C;192.168.211.145;255.255.255.0;192.168.211.254;BACK_INTERNAL_INT_2A2;192.168.221.145;255.255.255.0;192.168.221.254;INT_LB_RBCI;192.168.231.145;255.255.255.0;192.168.231.254;BACK_INTERNAL_INT_B;192.168.241.145;255.255.255.0;192.168.241.254;BACK_INTERNAL_INT_D;192.168.251.145;255.255.255.0;192.168.251.254
